@startuml

title __Design de la couche DAO__\n

    namespace fr.cnam.foad.nfa035.badges.wallet.dao {
        interface fr.cnam.foad.nfa035.badges.wallet.dao.BadgeWalletDAO {
            {abstract} + addBadge()
            {abstract} + getBadge()
        }

        namespace impl {
            class fr.cnam.foad.nfa035.badges.wallet.dao.impl.MultiBadgeWalletDAOImpl {
                {static} - LOG : Logger
                - deserializer : ImageStreamingDeserializer<ResumableImageFrameMedia>
                - walletDatabase : File
                + MultiBadgeWalletDAOImpl()
                + addBadge()
                + getBadge()
            }
        }
    }


    namespace fr.cnam.foad.nfa035.badges.wallet.dao {
        namespace impl {
            class fr.cnam.foad.nfa035.badges.wallet.dao.impl.SingleBadgeWalletDAOImpl {
                {static} - LOG : Logger
                - walletDatabase : File
                + SingleBadgeWalletDAOImpl()
                + addBadge()
                + getBadge()
            }
        }
    }




    namespace fr.cnam.foad.nfa035.badges.wallet.fileutils.streaming {
        namespace media {
            interface fr.cnam.foad.nfa035.badges.wallet.fileutils.streaming.media.ResumableImageFrameMedia {
                {abstract} + getEncodedImageReader()
            }
            interface fr.cnam.foad.nfa035.badges.wallet.fileutils.streaming.media.ImageFrameMedia {
                {abstract} + getChannel()
                {abstract} + getEncodedImageOutput()
            }
        }
    }

    fr.cnam.foad.nfa035.badges.wallet.dao.impl.MultiBadgeWalletDAOImpl .up.|> fr.cnam.foad.nfa035.badges.wallet.dao.BadgeWalletDAO
    fr.cnam.foad.nfa035.badges.wallet.dao.impl.MultiBadgeWalletDAOImpl o-- fr.cnam.foad.nfa035.badges.wallet.fileutils.streaming.media.ResumableImageFrameMedia : media
    fr.cnam.foad.nfa035.badges.wallet.dao.impl.SingleBadgeWalletDAOImpl .up.|> fr.cnam.foad.nfa035.badges.wallet.dao.BadgeWalletDAO
    fr.cnam.foad.nfa035.badges.wallet.dao.impl.SingleBadgeWalletDAOImpl o-- fr.cnam.foad.nfa035.badges.wallet.fileutils.streaming.media.ImageFrameMedia : media


right footer


PlantUML diagram generated by SketchIt! (https://bitbucket.org/pmesmeur/sketch.it)
For more information about this tool, please contact philippe.mesmeur@gmail.com
endfooter

@enduml
